{
    "dev": {
        "awscloudformation": {
            "AuthRoleName": "amplify-amplifythomond-dev-112715-authRole",
            "UnauthRoleArn": "arn:aws:iam::795731463656:role/amplify-amplifythomond-dev-112715-unauthRole",
            "AuthRoleArn": "arn:aws:iam::795731463656:role/amplify-amplifythomond-dev-112715-authRole",
            "Region": "eu-west-1",
            "DeploymentBucketName": "amplify-amplifythomond-dev-112715-deployment",
            "UnauthRoleName": "amplify-amplifythomond-dev-112715-unauthRole",
            "StackName": "amplify-amplifythomond-dev-112715",
            "StackId": "arn:aws:cloudformation:eu-west-1:795731463656:stack/amplify-amplifythomond-dev-112715/fdd9e190-21d8-11ec-a04c-0a51dd75868d",
            "AmplifyAppId": "d3sdviy55t6t9a"
        },
        "categories": {
            "auth": {
                "amplifythomondd7d5aed5": {}
            },
            "hosting": {
                "amplifyhosting": {
                    "appId": "d3sdviy55t6t9a",
                    "type": "cicd"
                }
            }
        }
    }
}